{
  "files": {
    "main.js": "./main.609f4b8214e034eec60f.bundle.js",
    "main.js.map": "./main.609f4b8214e034eec60f.bundle.js.map",
    "runtime~main.js": "./runtime~main.609f4b8214e034eec60f.bundle.js",
    "runtime~main.js.map": "./runtime~main.609f4b8214e034eec60f.bundle.js.map",
    "vendors~main.js": "./vendors~main.609f4b8214e034eec60f.bundle.js",
    "vendors~main.js.map": "./vendors~main.609f4b8214e034eec60f.bundle.js.map",
    "iframe.html": "./iframe.html",
    "precache-manifest.d899befae9374c0a4c878d8186dc6565.js": "./precache-manifest.d899befae9374c0a4c878d8186dc6565.js",
    "service-worker.js": "./service-worker.js",
    "vendors~main.609f4b8214e034eec60f.bundle.js.LICENSE.txt": "./vendors~main.609f4b8214e034eec60f.bundle.js.LICENSE.txt"
  },
  "entrypoints": [
    "runtime~main.609f4b8214e034eec60f.bundle.js",
    "vendors~main.609f4b8214e034eec60f.bundle.js",
    "main.609f4b8214e034eec60f.bundle.js"
  ]
}